<?xml version="1.0" standalone="no"?>
<svg version="1.1" xmlns="http://www.w3.org/2000/svg" xmlns:xlink="http://www.w3.org/1999/xlink" width="100" height="100" >
    
    
    <polygon
             style="stroke:rgb(204,204,204);fill:rgb(204,204,204);"
             points="10,50 50,90 50,85 15,50 50,15 50,10"
             stroke-linejoin="round"
             stroke-width="2"
    />
    
    
</svg>