<?xml version="1.0" standalone="no"?>
<svg version="1.1" xmlns="http://www.w3.org/2000/svg" xmlns:xlink="http://www.w3.org/1999/xlink" width="100" height="100" >
    
    /*base : 50,75 */
    /* collision detection points: 17.5,70;38,75;62,75;82.5,70;62.5,25;60,20;50,15;40,20 */
    
    /*main rocket body points: 37.5,30 37.5,75 62.5,75 62.5,30*/
    <rect x="37.5" y="30" width="25" height="45"
    style="fill:rgb(236,237,205)" transform="translate(0,-5)" />
    
    /*bottom part*/
    <polygon points="40,75 38,80 62,80 60,75" transform="translate(0,-5)" style="fill:rgb(60,19,104);" />
    
    /*window, poly center = 0,0*/
    <!--<polygon
            points="-50,-100   50,-100  100,-50  100,50 50,100 -50,100  -100,50  -100,-50"
            style="stroke:rgb(60,19,104); fill:rgb(93,237,216); stroke-width: 15;" 
            transform="translate(50,45) scale(0.08)"
    />-->
    
    <circle cx="50" cy="40" r="7" stroke="rgb(60,19,104)" stroke-width="1" fill="rgb(120,69,184)" />
    
    
    
    /*both top parts*/
    <polygon points="37.5,30 62.5,30 60,25 50,20 40,25"
             style="fill:rgb(60,19,104);"
             transform="translate(0,-5)"
    />
    
    /*left fin , c=50,50*/
    <polygon points="50,50 50,60 30,65 40,55"
             style="fill:rgb(60,19,104);"
             transform="translate(-12.5,5)"
    />
    
    /*right fin*/
    <polygon points="50,50 50,60 30,65 40,55"
             style="fill:rgb(60,19,104);"
             transform="scale(-1,1) translate(-112.5,5)"
    />
    
    /*fire part*/
    <polygon
             points="-10,0 -10,5 0,20 10,5 10,0" style="fill:red;"
             transform="translate(50,75)"
    />
    <polygon
             points="-10,0 -10,5 0,20 10,5 10,0" style="fill:yellow;"
             transform="translate(50,75) scale(.6)"
    />
    
    <!--
    /*hello planet*/
    <text cx="0" cy="0" fill="black" transform="translate(40,68) rotate(-90)" font-family="Arial"
           font-size="3">hello planet</text>
    -->
    
    
    
    <!-- collision detection area
        <polygon points="17.5,70 38,75 62,75 82.5,70 62.5,25 60,20 50,15 40,20" style="fill:black" />
    -->
    
    
</svg>